<svg width="110" height="90" xmlns="http://www.w3.org/2000/svg">
 <!-- Created with Method Draw - http://github.com/duopixel/Method-Draw/ -->
 <g>
  <title>background</title>
  <rect fill="none" id="canvas_background" height="92" width="112" y="-1" x="-1"/>
 </g>
 <g>
  <title>Layer 1</title>
  <path transform="rotate(90 86.87496948242189,45.45850372314454) " id="svg_6" d="m77.874979,45.406904l8.999996,-21.448397l8.999996,21.448397l-4.499998,0l0,21.551603l-8.999996,0l0,-21.551603l-4.499998,0z" stroke-opacity="null" stroke-width="1.5" stroke="#000" fill="#00007f"/>
  <path transform="rotate(45 74.87496185302736,17.458507537841797) " id="svg_8" d="m65.874968,17.406904l8.999996,-21.448396l8.999996,21.448396l-4.499998,0l0,21.551603l-8.999996,0l0,-21.551603l-4.499998,0z" stroke-opacity="null" stroke-width="1.5" stroke="#000" fill="#00007f"/>
  <path stroke="#000" id="svg_9" d="m5.162495,39.587284l34,0l0,9.999991l-34,0l0,-9.999991z" stroke-opacity="null" stroke-width="1.5" fill="#00007f"/>
  <path stroke="#000" id="svg_10" d="m1.3525,41.192773l3.081521,-5.104917l5.336958,-2.947542l6.163043,0l5.336959,2.947542l3.08152,5.104917l0,5.895085l-3.08152,5.104918l-5.336959,2.947541l-6.163043,0l-5.336958,-2.947541l-3.081521,-5.104918l0,-5.895085z" stroke-opacity="null" stroke-width="1.5" fill="#00007f"/>
  <path transform="rotate(135 74.87496948242188,72.45850372314453) " id="svg_12" d="m65.874979,72.406904l8.999996,-21.448396l8.999996,21.448396l-4.499998,0l0,21.551603l-8.999996,0l0,-21.551603l-4.499998,0z" stroke-opacity="null" stroke-width="1.5" stroke="#000" fill="#00007f"/>
  <path stroke="#000" id="svg_11" d="m35,44.5l0,0c0,-9.664983 8.058875,-17.5 18,-17.5l0,0c4.773895,0 9.352267,1.843744 12.72792,5.12563c3.375656,3.281888 5.27208,7.73308 5.27208,12.37437l0,0c0,9.66498 -8.058875,17.5 -18,17.5l0,0c-9.941124,0 -18,-7.835019 -18,-17.5zm9,0l0,0c0,4.83249 4.029441,8.75 9,8.75c4.970564,0 9,-3.91751 9,-8.75c0,-4.83249 -4.029438,-8.75 -9,-8.75l0,0c-4.970559,0 -9,3.917511 -9,8.75z" stroke-opacity="null" stroke-width="1.5" fill="#00007f"/>
 </g>
</svg>